…
Der Koeffizient von `I(km/10000)` zeigt, dass der Verkaufspreis pro 10.000 gefahrene Kilometer im Durchschnitt um 360 Euro sinkt. Die Koeffizienten der Faktorvariablen Jahr der Erstzulassung geben an, dass relativ zum Basisjahr 2015, Modelle zugelassen in 2016, 2017, 2018 im Durchschnitt einen 800, 1388, 2000 Euro höheren Verkaufspreis aufweisen (unabhängig von der Motorvariante). Der Preisunterschied der Motorvariante 101 PS im Vergleich zur Basis 90 PS liegt bei nur durchschnittlich 60 Euro. Der Preisunterschied bzgl. der 116 PS und 150 PS Variante fällt höher aus - im Durchschnitt 743 bzw. 2797 Euro.

------------------------------------------------------------------------

**Erweitertes Modell**: Nun füge ich weitere Merkmale wie die Anzahl der Fahrzeughalter, die Ausstattungslinie und den Standort des Wagen (Bundesland) als Kontrollvariablen hinzu.

``` r
model2 <- lm(preis ~ I(km/10000) + factor(jahr) + factor(ps) + 
               factor(halter) + factor(linie) + factor(bundesland), 
            data = cars, subset = jahr %in% c(2015:2018))
```

    ## # A tibble: 30 x 5
    ##    term                estimate std.error statistic   p.value
    ##    <chr>                  <dbl>     <dbl>     <dbl>     <dbl>
    ##  1 (Intercept)         10204.       284.    36.0    1.09e-123
    ##  2 I(km/10000)          -367.        29.4  -12.5    3.76e- 30
    ##  3 factor(jahr)2016      733.       191.     3.85   1.39e-  4
    ##  4 factor(jahr)2017     1263.       176.     7.19   3.53e- 12
    ##  5 factor(jahr)2018     2033.       198.    10.3    5.60e- 22
    ##  6 factor(ps)101          -2.30     171.    -0.0135 9.89e-  1
    ##  7 factor(ps)116         649.       166.     3.91   1.08e-  4
    ##  8 factor(ps)150        2088.       274.     7.62   2.15e- 13
    ##  9 factor(halter)2      -335.       106.    -3.15   1.76e-  3
    ## 10 factor(linie)2 Slam  1054.       196.     5.38   1.31e-  7
    ## # ... with 20 more rows
…
