R Tutorial: forcats package
…
## [1] first  second third  first  second third 
## Levels: first second third

as.factor()

We may also take an already existing column of the starwars dataset and transform it with function as.factor() and dplyr::mutate() into a factor variable. Below I take the species variable and convert it to a factor. Only the storage type of the column is altered but not the values of species.

starwars %>%
  mutate(species_fct = as.factor(species)) %>%
  select(name, starts_with("species"))

## # A tibble: 87 x 3
##    name               species species_fct
##    <chr>              <chr>   <fct>      
##  1 Luke Skywalker     Human   Human      
##  2 C-3PO              Droid   Droid      
##  3 R2-D2              Droid   Droid      
##  4 Darth Vader        Human   Human      
##  5 Leia Organa        Human   Human      
##  6 Owen Lars          Human   Human      
##  7 Beru Whitesun lars Human   Human      
##  8 R5-D4              Droid   Droid      
##  9 Biggs Darklighter  Human   Human      
## 10 Obi-Wan Kenobi     Human   Human      
## # ... with 77 more rows
…
This worked as expected! Anybody remember the function dplyr::distinct() from the dplyr tutorial? This functions also lists all unique values of a column but can be applied to any column type.

starwars %>%
  distinct(species)

## # A tibble: 38 x 1
##    species       
##    <chr>         
##  1 Human         
##  2 Droid         
##  3 Wookiee       
##  4 Rodian        
##  5 Hutt          
##  6 Yoda's species
##  7 Trandoshan    
##  8 Mon Calamari  
##  9 Ewok          
## 10 Sullustan     
## # ... with 28 more rows
…
2.2 Inspect

The following functions are used to have a closer look at the values and levels of a factor.

fct_count()

With fct_count() youre able to count the number of values for each level of a factor variable. Below I apply this to the species column of the starwars dataset.

fct_count(starwars$species)

## # A tibble: 38 x 2
##    f             n
##    <fct>     <int>
##  1 Aleena        1
##  2 Besalisk      1
##  3 Cerean        1
##  4 Chagrian      1
##  5 Clawdite      1
##  6 Droid         6
##  7 Dug           1
##  8 Ewok          1
##  9 Geonosian     1
## 10 Gungan        3
## # ... with 28 more rows

Note that it is not always necessary to convert columns of type character to a factor before applying functions of the forcats package.

By the way: the function dplyr::count() returns a similar output.

starwars %>%
  count(species)

## # A tibble: 38 x 2
##    species       n
##    <chr>     <int>
##  1 Aleena        1
##  2 Besalisk      1
##  3 Cerean        1
##  4 Chagrian      1
##  5 Clawdite      1
##  6 Droid         6
##  7 Dug           1
##  8 Ewok          1
##  9 Geonosian     1
## 10 Gungan        3
## # ... with 28 more rows
…
fct_c(f1, f2) %>% levels()

## [1] "female"         "hermaphroditic" "male"           "none"          
## [5] "feminine"       "masculine"

This function is best used to patch together factors from multiple sources that should have the same levels.

There is also a neat function called fct_cross() which computes a factor whose levels are the combinations of the levels of all input factors.

starwars %>%
  mutate(sex_gender = fct_cross(sex, gender)) %>%
  select(name, sex_gender, sex, gender)

## # A tibble: 87 x 4
##    name               sex_gender      sex    gender   
##    <chr>              <fct>           <chr>  <chr>    
##  1 Luke Skywalker     male:masculine  male   masculine
##  2 C-3PO              none:masculine  none   masculine
##  3 R2-D2              none:masculine  none   masculine
##  4 Darth Vader        male:masculine  male   masculine
##  5 Leia Organa        female:feminine female feminine 
##  6 Owen Lars          male:masculine  male   masculine
##  7 Beru Whitesun lars female:feminine female feminine 
##  8 R5-D4              none:masculine  none   masculine
##  9 Biggs Darklighter  male:masculine  male   masculine
## 10 Obi-Wan Kenobi     male:masculine  male   masculine
## # ... with 77 more rows
…
Lets have a look at the first 10 rows of the starwars dataset to verify this.

starwars %>%
  print()

## # A tibble: 87 x 14
##    name     height  mass hair_color skin_color eye_color birth_year sex   gender
##    <chr>     <int> <dbl> <chr>      <chr>      <chr>          <dbl> <chr> <chr> 
##  1 Luke Sk~    172    77 blond      fair       blue            19   male  mascu~
##  2 C-3PO       167    75 <NA>       gold       yellow         112   none  mascu~
##  3 R2-D2        96    32 <NA>       white, bl~ red             33   none  mascu~
##  4 Darth V~    202   136 none       white      yellow          41.9 male  mascu~
##  5 Leia Or~    150    49 brown      light      brown           19   fema~ femin~
##  6 Owen La~    178   120 brown, gr~ light      blue            52   male  mascu~
##  7 Beru Wh~    165    75 brown      light      blue            47   fema~ femin~
##  8 R5-D4        97    32 <NA>       white, red red             NA   none  mascu~
##  9 Biggs D~    183    84 black      light      brown           24   male  mascu~
## 10 Obi-Wan~    182    77 auburn, w~ fair       blue-gray       57   male  mascu~
## # ... with 77 more rows, and 5 more variables: homeworld <chr>, species <chr>,
## #   films <list>, vehicles <list>, starships <list>
…
Again youll often use the functions in this sections to alter the values of the factor, hence I demonstrate the examples in combination with function dplyr::mutate().

fct_recode()

The function fct_recode() lets us manually change levels of a factor. You only have to specify a new value of the level for each original value that you want to change. If no value is supplied for an original level, the level remains unaltered. Below Im recoding the levels of column sex such that only the first letter of each original level is present in the new factor sex_mod.

starwars %>%
  mutate(sex_mod = fct_recode(
    sex,
    m = "male",f = "female", 
    n = "none", h = "hermaphroditic")
    ) %>%
  select(name, sex_mod, sex)

## # A tibble: 87 x 3
##    name               sex_mod sex   
##    <chr>              <fct>   <chr> 
##  1 Luke Skywalker     m       male  
##  2 C-3PO              n       none  
##  3 R2-D2              n       none  
##  4 Darth Vader        m       male  
##  5 Leia Organa        f       female
##  6 Owen Lars          m       male  
##  7 Beru Whitesun lars f       female
##  8 R5-D4              n       none  
##  9 Biggs Darklighter  m       male  
## 10 Obi-Wan Kenobi     m       male  
## # ... with 77 more rows

fct_relabel()

Also consider using the function fct_relabel() which obeys the purrr::map() syntax to apply a function or expression to each level. Below I use function paste0() to add the string sex_ to each level of variable sex.

starwars %>%
  mutate(sex_mod = fct_relabel(
    sex,
    ~ paste0("sex_", .x))
    ) %>%
  select(name, sex_mod, sex)

## # A tibble: 87 x 3
##    name               sex_mod    sex   
##    <chr>              <fct>      <chr> 
##  1 Luke Skywalker     sex_male   male  
##  2 C-3PO              sex_none   none  
##  3 R2-D2              sex_none   none  
##  4 Darth Vader        sex_male   male  
##  5 Leia Organa        sex_female female
##  6 Owen Lars          sex_male   male  
##  7 Beru Whitesun lars sex_female female
##  8 R5-D4              sex_none   none  
##  9 Biggs Darklighter  sex_male   male  
## 10 Obi-Wan Kenobi     sex_male   male  
## # ... with 77 more rows

fct_anon()

Sometimes, for example when publishing sensitive data, it may become necessary to anonymize levels of a factor variable with random integers. This can be done with function fct_anon().

starwars %>%
  mutate(sex_mod = fct_anon(as.factor(sex))) %>%
  select(name, sex_mod, sex)

## # A tibble: 87 x 3
##    name               sex_mod sex   
##    <chr>              <fct>   <chr> 
##  1 Luke Skywalker     4       male  
##  2 C-3PO              2       none  
##  3 R2-D2              2       none  
##  4 Darth Vader        4       male  
##  5 Leia Organa        1       female
##  6 Owen Lars          4       male  
##  7 Beru Whitesun lars 1       female
##  8 R5-D4              2       none  
##  9 Biggs Darklighter  4       male  
## 10 Obi-Wan Kenobi     4       male  
## # ... with 77 more rows

It is also possible to add a prefix = to the anonymized factor.

starwars %>%
  mutate(sex_mod = 
           fct_anon(
             as.factor(sex), 
             prefix = "sex_"
             )
         ) %>%
  select(name, sex_mod, sex)

## # A tibble: 87 x 3
##    name               sex_mod sex   
##    <chr>              <fct>   <chr> 
##  1 Luke Skywalker     sex_1   male  
##  2 C-3PO              sex_4   none  
##  3 R2-D2              sex_4   none  
##  4 Darth Vader        sex_1   male  
##  5 Leia Organa        sex_3   female
##  6 Owen Lars          sex_1   male  
##  7 Beru Whitesun lars sex_3   female
##  8 R5-D4              sex_4   none  
##  9 Biggs Darklighter  sex_1   male  
## 10 Obi-Wan Kenobi     sex_1   male  
## # ... with 77 more rows
…
With the function fct_collapse() we can collapse levels of a factor into manually defined groups. This is very useful when a factor has too many distinct levels but some of them share common characteristics and you can mingle them together. Below Im generating new levels for column hair_color. Star Wars characters with unicolored/multicolored hair are reassigned either the level "singleColor" or "multiColor". Cases with "unknown" or "none" hair color are changed to "missing".

starwars %>%
  mutate(hair_color_mod = 
           fct_collapse(
             hair_color, 
             missing = c("unknown", "none"),
             singleColor = c("auburn", "black", "blond", "blonde", 
                        "brown", "grey", "white"),
             multiColor = c("auburn, grey", "auburn, white", "brown, grey")
             )
         ) %>%
  select(name, hair_color_mod, hair_color)

## # A tibble: 87 x 3
##    name               hair_color_mod hair_color   
##    <chr>              <fct>          <chr>        
##  1 Luke Skywalker     singleColor    blond        
##  2 C-3PO              <NA>           <NA>         
##  3 R2-D2              <NA>           <NA>         
##  4 Darth Vader        missing        none         
##  5 Leia Organa        singleColor    brown        
##  6 Owen Lars          multiColor     brown, grey  
##  7 Beru Whitesun lars singleColor    brown        
##  8 R5-D4              <NA>           <NA>         
##  9 Biggs Darklighter  singleColor    black        
## 10 Obi-Wan Kenobi     multiColor     auburn, white
## # ... with 77 more rows
…
The function fct_other() is used to replace levels of a factor with value "Other". We can use this function either with argument keep = or drop =.

The argument keep = merges all not supplied levels into the new category "Other".

starwars %>%
  mutate(sex_mod = 
           fct_other(
             sex,
             keep = c("male", "female")
             )
         ) %>%
  select(name, sex_mod, sex)

## # A tibble: 87 x 3
##    name               sex_mod sex   
##    <chr>              <fct>   <chr> 
##  1 Luke Skywalker     male    male  
##  2 C-3PO              Other   none  
##  3 R2-D2              Other   none  
##  4 Darth Vader        male    male  
##  5 Leia Organa        female  female
##  6 Owen Lars          male    male  
##  7 Beru Whitesun lars female  female
##  8 R5-D4              Other   none  
##  9 Biggs Darklighter  male    male  
## 10 Obi-Wan Kenobi     male    male  
## # ... with 77 more rows

The argument drop = merges all supplied levels into the new category "Other".

starwars %>%
  mutate(sex_mod = 
           fct_other(
             sex,
             drop = c("hermaphroditic", "none")
             )
         ) %>%
  select(name, sex_mod, sex)

## # A tibble: 87 x 3
##    name               sex_mod sex   
##    <chr>              <fct>   <chr> 
##  1 Luke Skywalker     male    male  
##  2 C-3PO              Other   none  
##  3 R2-D2              Other   none  
##  4 Darth Vader        male    male  
##  5 Leia Organa        female  female
##  6 Owen Lars          male    male  
##  7 Beru Whitesun lars female  female
##  8 R5-D4              Other   none  
##  9 Biggs Darklighter  male    male  
## 10 Obi-Wan Kenobi     male    male  
## # ... with 77 more rows
…
